INDEX VERSION 1.131+C:\Users\Dell\Desktop\JAVA\JavaProject\.metadata\.plugins\org.eclipse.jdt.core
1219956903.index
1603530540.index
2278981062.index
287995934.index
1178520791.index
3865672151.index
2663898722.index
1518467677.index
3290118325.index
1041127751.index
880501391.index
3445009390.index
4221075275.index
2859641660.index
3643070244.index
1038580146.index
3545645641.index
3826083155.index
1963982375.index
1923293400.index
3580691928.index
1444227676.index
4207606346.index
1828026965.index
3460880079.index
1657834554.index
4074877440.index
3627248219.index
259863609.index
4258817699.index
2766563595.index
2770135411.index
2782588745.index
3499372588.index
988869294.index
844275987.index
1114993572.index
3122379076.index
1119650345.index
